//CoDeSys Mapping Export V1.2
//Mapped variable;//Parameter name @ counter in device;//Unit;//Description;//IEC address;//Device name;
//Important: change only first, third or fourth column in Excel or add variable name before first ;
Application.HartStructure1.CONTROL1;OUT0;;;%QB0;CVS_GT_5914
;BIT0;;;%QX0.0;CVS_GT_5914
;BIT1;;;%QX0.1;CVS_GT_5914
;BIT2;;;%QX0.2;CVS_GT_5914
;BIT3;;;%QX0.3;CVS_GT_5914
;BIT4;;;%QX0.4;CVS_GT_5914
;BIT5;;;%QX0.5;CVS_GT_5914
;BIT6;;;%QX0.6;CVS_GT_5914
;BIT7;;;%QX0.7;CVS_GT_5914
Application.HartStructure1.CONTROL2;OUT1;;;%QB1;CVS_GT_5914
;BIT0@1;;;%QX1.0;CVS_GT_5914
;BIT1@1;;;%QX1.1;CVS_GT_5914
;BIT2@1;;;%QX1.2;CVS_GT_5914
;BIT3@1;;;%QX1.3;CVS_GT_5914
;BIT4@1;;;%QX1.4;CVS_GT_5914
;BIT5@1;;;%QX1.5;CVS_GT_5914
;BIT6@1;;;%QX1.6;CVS_GT_5914
;BIT7@1;;;%QX1.7;CVS_GT_5914
Application.HartStructure1.CONTROL3;OUT2;;;%QB2;CVS_GT_5914
;BIT0@2;;;%QX2.0;CVS_GT_5914
;BIT1@2;;;%QX2.1;CVS_GT_5914
;BIT2@2;;;%QX2.2;CVS_GT_5914
;BIT3@2;;;%QX2.3;CVS_GT_5914
;BIT4@2;;;%QX2.4;CVS_GT_5914
;BIT5@2;;;%QX2.5;CVS_GT_5914
;BIT6@2;;;%QX2.6;CVS_GT_5914
;BIT7@2;;;%QX2.7;CVS_GT_5914
Application.HartStructure1.CONTROL4;OUT3;;;%QB3;CVS_GT_5914
;BIT0@3;;;%QX3.0;CVS_GT_5914
;BIT1@3;;;%QX3.1;CVS_GT_5914
;BIT2@3;;;%QX3.2;CVS_GT_5914
;BIT3@3;;;%QX3.3;CVS_GT_5914
;BIT4@3;;;%QX3.4;CVS_GT_5914
;BIT5@3;;;%QX3.5;CVS_GT_5914
;BIT6@3;;;%QX3.6;CVS_GT_5914
;BIT7@3;;;%QX3.7;CVS_GT_5914
Application.HartStructure1.CH1;AI0;;;%IW0;CVS_GT_5914
Application.HartStructure1.CH2;AI1;;;%IW1;CVS_GT_5914
Application.HartStructure1.CH3;AI2;;;%IW2;CVS_GT_5914
Application.HartStructure1.CH4;AI3;;;%IW3;CVS_GT_5914
Application.HartStructure1.HART1;AI4;;;%IW4;CVS_GT_5914
Application.HartStructure1.HART2;AI5;;;%IW5;CVS_GT_5914
Application.HartStructure1.HART3;AI6;;;%IW6;CVS_GT_5914
Application.HartStructure1.HART4;AI7;;;%IW7;CVS_GT_5914
Application.HartStructure1.HART5;AI8;;;%IW8;CVS_GT_5914
Application.HartStructure1.HART6;AI9;;;%IW9;CVS_GT_5914
Application.HartStructure1.HART7;AI10;;;%IW10;CVS_GT_5914
Application.HartStructure1.HART8;AI11;;;%IW11;CVS_GT_5914
